Portfolio opdracht 1 deel 1 | Portfolio
…
#inlezen van de excelsheet
c_elegans_plaatexp_cp <- read_excel("~/HU_ILC_DS2/Datascience2_portfolio/data/CE.LIQ.FLOW.062_Tidydata.xlsx")

#openen als tibble om te kunnen inspecteren welke gegevenstypen gegeven zijn aan de data
as_tibble(c_elegans_plaatexp_cp)

## # A tibble: 360 × 34
##    plateRow plateColumn vialNr dropCode expType    expReplicate expName        
##    <lgl>    <lgl>        <dbl> <chr>    <chr>             <dbl> <chr>          
##  1 NA       NA               1 a        experiment            3 CE.LIQ.FLOW.062
##  2 NA       NA               1 b        experiment            3 CE.LIQ.FLOW.062
##  3 NA       NA               1 c        experiment            3 CE.LIQ.FLOW.062
##  4 NA       NA               1 d        experiment            3 CE.LIQ.FLOW.062
##  5 NA       NA               1 e        experiment            3 CE.LIQ.FLOW.062
##  6 NA       NA               2 a        experiment            3 CE.LIQ.FLOW.062
##  7 NA       NA               2 b        experiment            3 CE.LIQ.FLOW.062
##  8 NA       NA               2 c        experiment            3 CE.LIQ.FLOW.062
##  9 NA       NA               2 d        experiment            3 CE.LIQ.FLOW.062
## 10 NA       NA               2 e        experiment            3 CE.LIQ.FLOW.062
## # ℹ 350 more rows
## # ℹ 27 more variables: expDate <dttm>, expResearcher <chr>, expTime <dbl>,
## #   expUnit <chr>, expVolumeCounted <dbl>, RawData <dbl>, compCASRN <chr>,
## #   compName <chr>, compConcentration <chr>, compUnit <chr>,
## #   compDelivery <chr>, compVehicle <chr>, elegansStrain <chr>,
## #   elegansInput <dbl>, bacterialStrain <chr>, bacterialTreatment <chr>,
## #   bacterialOD600 <dbl>, bacterialConcX <dbl>, bacterialVolume <dbl>, …
…
zoals aangegeven bij c is compConcentration een chr in plaats van een dbl, hierdoor is de volgorde van de x-as niet correct, dit moet dus aangepast worden.

#corrigeren van het gegevenstype van de compConcentration
c_elegans_plaatexp_cp$compConcentration <- as.double(c_elegans_plaatexp_cp$compConcentration)

#weergeven om te checken of de verandering correct plaatsgevonden heeft
as_tibble(c_elegans_plaatexp_cp)

## # A tibble: 360 × 34
##    plateRow plateColumn vialNr dropCode expType    expReplicate expName        
##    <lgl>    <lgl>        <dbl> <chr>    <chr>             <dbl> <chr>          
##  1 NA       NA               1 a        experiment            3 CE.LIQ.FLOW.062
##  2 NA       NA               1 b        experiment            3 CE.LIQ.FLOW.062
##  3 NA       NA               1 c        experiment            3 CE.LIQ.FLOW.062
##  4 NA       NA               1 d        experiment            3 CE.LIQ.FLOW.062
##  5 NA       NA               1 e        experiment            3 CE.LIQ.FLOW.062
##  6 NA       NA               2 a        experiment            3 CE.LIQ.FLOW.062
##  7 NA       NA               2 b        experiment            3 CE.LIQ.FLOW.062
##  8 NA       NA               2 c        experiment            3 CE.LIQ.FLOW.062
##  9 NA       NA               2 d        experiment            3 CE.LIQ.FLOW.062
## 10 NA       NA               2 e        experiment            3 CE.LIQ.FLOW.062
## # ℹ 350 more rows
## # ℹ 27 more variables: expDate <dttm>, expResearcher <chr>, expTime <dbl>,
## #   expUnit <chr>, expVolumeCounted <dbl>, RawData <dbl>, compCASRN <chr>,
## #   compName <chr>, compConcentration <dbl>, compUnit <chr>,
## #   compDelivery <chr>, compVehicle <chr>, elegansStrain <chr>,
## #   elegansInput <dbl>, bacterialStrain <chr>, bacterialTreatment <chr>,
## #   bacterialOD600 <dbl>, bacterialConcX <dbl>, bacterialVolume <dbl>, …
…
